{
    "$schema": "https://railway.app/railway.schema.json",
    "build": {
        "builder": "NIXPACKS"
    },
    "deploy": {
        "startCommand": "python manage.py migrate && python manage.py collectstatic --noinput && gunicorn nlp_aksara_be.wsgi --timeout 600 --worker-class gevent -w 2",
        "restartPolicyType": "ON_FAILURE",
        "restartPolicyMaxRetries": 10
    }
}